{
  "posts": [
    {
      "id": 1,
      "title": "json-server",
      "author": "typicode"
    }
  ],
  "comments": [
    {
      "id": 1,
      "body": "ever since the 1500s, when an unknown printer took a galley of type and scrambled it to make a type specimen book. It has survived not only five centuries, but also",
      "picture":"https://cdn.pixabay.com/photo/2015/04/23/22/00/tree-736885__480.jpg",
      "author": "typicode",
      "postId": 1
    },
    {
      "id": 2,
      "body": "ever since the 1500s, when an unknown printer took a galley of type and scrambled it to make a type specimen book. It has survived not only five centuries, but also 2",
      "picture":"https://cdn.pixabay.com/photo/2015/04/23/22/00/tree-736885__480.jpg",
      "author": "typicode 2",
      "postId": 2
    },
    {
      "id": 3,
      "body": "ever since the 1500s, when an unknown printer took a galley of type and scrambled it to make a type specimen book. It has survived not only five centuries, but also 3",
      "picture":"https://cdn.pixabay.com/photo/2015/04/23/22/00/tree-736885__480.jpg",
      "author": "typicode 3",
      "postId": 3
    },
    {
      "id": 4,
      "body": "ever since the 1500s, when an unknown printer took a galley of type and scrambled it to make a type specimen book. It has survived not only five centuries, but also 4",
      "picture":"https://cdn.pixabay.com/photo/2015/04/23/22/00/tree-736885__480.jpg",
      "author": "typicode 4",
      "postId": 4
    }
  ],
  "profile": {
    "name": "typicode"
  }
}